<svg viewBox="0 0 10 17">
  <path d="M2.55319 9.59574C2.48936 9.59574 1.08511 9.59574 0.446808 9.59574C0.106383 9.59574 0 9.46808 0 9.14894C0 8.29787 0 7.42553 0 6.57447C0 6.23404 0.12766 6.12766 0.446808 6.12766H2.55319C2.55319 6.06383 2.55319 4.82979 2.55319 4.25532C2.55319 3.40426 2.70213 2.59574 3.12766 1.85106C3.57447 1.08511 4.21276 0.574468 5.02127 0.276596C5.55319 0.0851062 6.0851 0 6.65957 0H8.74468C9.04255 0 9.17021 0.12766 9.17021 0.425532V2.85106C9.17021 3.14894 9.04255 3.2766 8.74468 3.2766C8.17021 3.2766 7.59574 3.2766 7.02127 3.29787C6.44681 3.29787 6.14893 3.57447 6.14893 4.17021C6.12766 4.80851 6.14893 5.42553 6.14893 6.08511H8.61702C8.95744 6.08511 9.0851 6.21277 9.0851 6.55319V9.12766C9.0851 9.46809 8.97872 9.57447 8.61702 9.57447C7.85106 9.57447 6.21276 9.57447 6.14893 9.57447V16.5106C6.14893 16.8723 6.04255 17 5.65957 17C4.76596 17 3.89362 17 3 17C2.68085 17 2.55319 16.8723 2.55319 16.5532C2.55319 14.3191 2.55319 9.65957 2.55319 9.59574Z"
        />
</svg>
