<svg viewBox="0 0 20 11">
  <path fill-rule="evenodd" clip-rule="evenodd"
        d="M9.47886 10.9874H10.6405C10.6405 10.9874 10.9793 10.939 11.173 10.7454C11.3424 10.576 11.3424 10.2372 11.3424 10.2372C11.3424 10.2372 11.3182 8.68828 12.0442 8.44627C12.746 8.22846 13.6657 9.94675 14.6337 10.6002C15.3598 11.1084 15.9164 10.9874 15.9164 10.9874L18.506 10.9632C18.506 10.9632 19.8612 10.8906 19.2078 9.82574C19.1594 9.72894 18.8448 9.0271 17.2959 7.59922C15.6744 6.09874 15.8922 6.34075 17.8525 3.72701C19.0384 2.15392 19.5224 1.18587 19.3772 0.750241C19.232 0.36302 18.3608 0.459825 18.3608 0.459825L15.4566 0.484027C15.4566 0.484027 15.2388 0.459825 15.0694 0.556631C14.8758 0.677637 14.779 0.895449 14.779 0.895449C14.779 0.895449 14.3191 2.12972 13.7141 3.17038C12.4072 5.3727 11.899 5.4937 11.6812 5.3485C11.1972 5.03388 11.3182 4.06583 11.3182 3.38819C11.3182 1.25847 11.6328 0.36302 10.6889 0.145208C10.3743 0.0726037 10.1323 0.0242013 9.33365 0C8.29299 0 7.42174 0 6.91352 0.242013C6.5747 0.411423 6.33268 0.774443 6.47789 0.774443C6.6715 0.798644 7.10713 0.89545 7.32494 1.21007C7.61536 1.62149 7.61536 2.51694 7.61536 2.51694C7.61536 2.51694 7.78477 5.03388 7.20393 5.3485C6.81671 5.56631 6.28428 5.13068 5.12262 3.12197C4.54179 2.10552 4.08196 0.968054 4.08196 0.968054C4.08196 0.968054 3.98515 0.750241 3.83995 0.653436C3.71894 0.556631 3.47693 0.484027 3.21071 0.484027L0.621168 0.508228C0.621168 0.508228 0.209745 0.508228 0.0645369 0.701839C-0.0806711 0.871248 0.0645369 1.18587 0.0645369 1.18587C0.0645369 1.18587 2.24266 6.24395 4.68699 8.78509C6.93772 11.1568 9.47886 10.9874 9.47886 10.9874Z"
  />
</svg>
