<svg width="20" height="17" viewBox="0 0 20 17" fill="none" xmlns="http://www.w3.org/2000/svg">
<path d="M7.68196 9.86538L7.46114 10.0676L7.44032 10.3663L7.17944 14.1091L7.12352 14.9112H7.92762C8.23624 14.9112 8.5032 14.8403 8.73938 14.7014C8.93772 14.5848 9.08773 14.4323 9.17508 14.3435C9.17856 14.3399 9.18194 14.3365 9.18523 14.3331L10.471 13.0799L13.5836 15.4049L13.6211 15.4329L13.6618 15.456C14.0821 15.6949 14.6406 15.8675 15.1856 15.6157C15.7228 15.3675 15.9677 14.8341 16.0773 14.3435L16.0774 14.3435L16.0795 14.3336L18.4147 3.17262L18.4151 3.17227L18.4601 2.95804C18.5919 2.33184 18.5266 1.672 18.0719 1.22572C17.6028 0.765238 16.959 0.762903 16.4566 0.953645L16.4565 0.953614L16.4499 0.956193L2.45948 6.41949L2.45947 6.41948L2.45621 6.42077C2.16695 6.53529 1.90285 6.68033 1.69498 6.86606C1.49052 7.04875 1.28553 7.32299 1.2541 7.68647C1.22067 8.07305 1.39732 8.38706 1.61526 8.59488C1.82215 8.79216 2.08502 8.9183 2.34389 9.00015L5.91998 10.1347L6.25446 10.2408L6.55027 10.052L9.6113 8.0984L7.68196 9.86538Z" stroke="#9AA4F2" stroke-width="1.5"/>
</svg>
